geographic_region,country,country_code,total_population,pis_frequency_per_1k,piz_frequency_per_1k,population_density,population_ages_over_65_percentage,male_percentage,urban_population_percentage,hdi_rank,human_development_index,life_expectancy_at_birth,expected_years_of_schooling,gross_national_income_per_capita,exports_and_imports_gdp_percentage,international_inbound_tourists_thousends
east & southeast,China,CHN,1373541278,0,0,148.348833270666,10.9208835350654,51.3206260427305,59.152,85,0.758,76.7,13.9,16127,38.2,60740
south asia,India,IND,1266883598,0,0.6,454.938072575247,6.17995564947149,51.9764603573316,34.03,129,0.647,69.4,12.3,6829,43.1,15543
north america,US,USA,259196422,31,15,35.7136220923495,15.8076540556035,49.4799853460876,82.256,15,0.92,78.9,16.3,56140,27.1,76941
asia,Indonesia,IDN,258316051,0,0,147.75219008926,5.85716561272863,50.3561178110783,55.325,111,0.707,71.5,12.9,11256,43,14040
asia,Brazil,BRA,205823665,48,6,25.0617162430876,8.92283783244003,49.1700832370106,86.569,79,0.761,75.7,15.4,14068,29.1,6589
south asia,Pakistan,PAK,201995540,11,9,275.289318700706,4.31277431133756,51.4619252830235,36.666,152,0.56,67.1,8.5,5190,28,966
north africa,Nigeria,NGA,186053386,63,3,215.064988965381,2.74737700532743,50.6638864537293,50.344,158,0.534,54.3,9.7,5086,26.3,1889
eastern europe,Russia,RUS,142355415,6,3,8.82206795315588,14.6747083203719,46.3382376418675,74.433,49,0.824,72.4,15.5,25036,51.5,24390
asia,Japan,JPN,126702133,0,0,347.073458415624,27.576369910355,48.8407408708922,91.616,19,0.915,84.5,15.2,40799,34.6,28691
north america,Mexico,MEX,123166749,36,6,64.9146264050001,7.22368498087198,48.9107191680609,80.156,76,0.767,75,14.3,17628,80.3,39291
asia,Philippines,PHL,102624209,4,0,357.688305329175,5.12256876829946,50.2583426148185,46.907,106,0.712,71.1,12.7,9540,76.1,6621
Middle east,Iran,IRN,82801633,8,7,50.222420123284,6.18457380562499,50.5608702393945,74.898,65,0.797,76.5,14.7,18166,48.8,4867
Central and south,Democratic republic of the Congo,COD,81331050,0,0,37.0825923557045,3.01784062159803,49.9022566136032,44.46,179,0.459,60.4,9.7,800,71,351
Central europe,Germany,DEU,80722792,23,16,237.30759674834,21.4619619953309,49.3396326299471,77.312,4,0.939,81.2,17.1,46946,87.2,37452
asia,Thailand,THA,68200824,20,11,135.897206835131,11.9008931395893,48.7312953850305,49.949,77,0.765,76.9,14.7,16129,123.3,35592
Western europe,France,FRA,66836154,75,16,122.299437237519,20.0346247469881,48.4157595188664,80.444,26,0.891,82.5,15.5,40511,63.4,86861
Western europe,United Kingdom,GBR,64430428,44,14,274.708981936924,18.3958656741466,49.3647254392421,83.398,15,0.92,81.2,17.4,39507,61.3,37651
southern europe,Italy,ITA,62007540,39,13,205.418372203713,22.7516796025077,48.6233303744348,70.438,29,0.883,83.4,16.2,36141,61,58253
africa,South Africa,ZAF,54300704,37,0,47.6301197767684,5.31800500542302,49.3058496151405,66.355,113,0.705,63.9,13.7,11756,59.8,10285
asia,South Korea,KOR,50924172,0,6,529.358501289308,14.4185558323969,50.0831182079157,81.459,22,0.906,82.8,16.4,36757,83,13336
southern europe,Spain,ESP,48563476,104,17,93.6771974435832,19.3785075224995,49.1033586867441,80.321,25,0.893,83.4,17.9,35041,66.6,81786
south america,Colombia,COL,47220856,38,6,44.7487021180712,8.47804701986958,49.0742283047706,80.778,79,0.761,77.1,14.6,12896,36.8,4113
south america,Argentina,ARG,43886748,33,6,16.2585100979651,11.1177888760774,48.7626515543443,91.87,48,0.83,76.5,17.6,17611,30.8,6720
Central europe,Poland,POL,38523261,14,13,124.023482151605,17.5178167625452,48.4692926205484,60.058,32,0.872,78.5,16.4,27626,107.2,18258
north america,Canada,CAN,35362905,39,14,4.07518823864492,17.2320066788651,49.6084700456847,81.411,13,0.922,82.3,16.1,43602,65.9,20798
north africa,Morocco,MAR,33655786,2,1,80.7285189334528,7.0129048211122,49.5961527087182,62.453,121,0.676,76.5,13.1,7480,87.1,11349
asia,Malaysia,MYS,30949962,16,0,95.9628214883579,6.67175462547886,51.4214794180151,76.036,61,0.804,76,13.5,27227,132.3,25948
south america,Venezuela,VEN,30912302,52,8,32.7307919052208,7.26698662012597,49.3667401977151,88.208,96,0.726,72.1,12.8,9070,48.1,427
south america,Peru,PER,30741062,33,6,24.99160625,8.08839279183076,49.6622445060867,77.907,82,0.759,76.5,13.8,12323,49,4032
south asia,Nepal,NPL,29033914,0,0,195.939107080572,5.72767077569198,45.4646566707404,19.74,147,0.579,70.5,12.2,2748,54.3,940
africa,Mozambique,MOZ,25930150,2,0,37.508535313716,2.8907644574499,48.5248088987225,35.988,180,0.446,60.2,9.7,1154,117.3,1447
north africa,Cameroon,CMR,24360803,6,0,53.3439889149796,2.72887735524057,49.9965121712533,56.374,150,0.563,58.9,12.7,3291,39.3,994
australia and new Zealand,Australia,AUS,22992654,44,13,3.24787091037205,15.6564752275591,49.8003767588704,86.012,6,0.938,83.3,22.1,44097,43,8815
Central asia,Kazakhstan,KAZ,18360353,0,2,6.76982572137645,7.39184627103032,48.4885163531812,57.428,50,0.817,73.2,15.3,22168,60.6,7701
south america,Chile,CHL,17650114,37,6,25.1894460666519,11.5298016568816,49.2729681609955,87.564,42,0.847,80,16.5,21972,57.5,6450
Western europe,Netherlands,NLD,17016967,46,18,511.475927574948,19.1961926333387,49.7790564352187,91.49,10,0.933,82.1,18,50013,155.3,17924
south america,Ecuador,ECU,16080778,35,6,68.7886817522951,7.15728972666108,50.0293748217302,63.821,85,0.758,76.8,14.9,10141,45.9,1608
Central america and Caribbean,Guatemala,GTM,15189958,33,6,152.547125793206,4.81207250828785,49.2406505040772,51.054,126,0.651,74.1,10.6,7378,45.8,2113
Western europe,Belgium,BEL,11409077,54,17,377.379590488771,18.7887437383395,49.406680612915,98.001,17,0.919,81.5,19.7,43821,175.6,8385
Central america and Caribbean,Cuba,CUB,11179995,41,7,108.999596231494,15.1862114171521,49.6671501672319,77.037,72,0.778,78.7,14.4,7811,26.2,4594
south america,Bolivia,BOL,10969649,33,6,10.4801458506416,7.19194739218447,50.2166008698915,69.425,114,0.703,71.2,14,6849,57.1,1134
north africa,Tunisia,TUN,10937521,8,0,74.4413233779609,8.31567907898877,49.5628481402358,68.945,91,0.739,76.5,15.1,10677,99.5,7052
southern europe,Portugal,PRT,10833816,114,21,112.2619412173,21.9538575375873,47.2880382894548,65.211,40,0.85,81.9,16.3,27935,87,15432
Central america and Caribbean,Dominican Republic,DOM,10606865,37,6,219.97857586421,7.08281747649721,49.992203928298,81.074,89,0.745,73.9,14.1,15074,55,6188
northern europe,Sweden,SWE,9880604,16,15,24.9814981218237,20.0955249278002,50.0542238330143,87.431,8,0.937,82.7,18.8,47955,90.9,7054
Central america and Caribbean,Honduras,HND,8893259,37,6,85.6870319063366,4.69061765907812,49.9506598315331,57.096,132,0.623,75.1,10.2,4258,102.1,851
Central europe,Austria,AUT,8711770,22,13,107.127966860564,19.0015664595899,49.1705733517497,58.297,20,0.914,81.4,16.3,46231,105.5,29460
Central europe,Switzerland,CHE,8179294,38,11,215.465350480429,18.6232165647717,49.5728753377763,73.797,2,0.946,83.6,16.2,59375,118.8,9889
eastern europe,Serbia,SRB,7143921,7,12,79.8376857992225,18.3457926916963,48.997477035846,56.092,63,0.799,75.8,14.8,15218,110.2,1497
south america,Paraguay,PRY,6862812,39,7,17.5083589227284,6.43021500946081,50.8483886516939,61.585,98,0.724,74.1,12.7,11720,69.8,1584
asia,Papua New Guinea,PNG,6791317,4,0,19.0043633794109,3.44526925145617,51.0372721268686,13.169,155,0.543,64.3,10,3686,..,179
Central america and Caribbean,El Salvador,SLV,6156670,40,7,309.881467181467,8.28709000480629,46.8859975641437,72.023,124,0.667,73.1,12,6973,77.5,1556
Central america and Caribbean,Nicaragua,NIC,5966798,37,6,53.7270483629716,5.24749744838026,49.2872943199151,58.522,126,0.651,74.3,12.2,4790,93.3,1787
asia,Singapore,SGP,5781728,5,0,7952.9984184018,11.4633801933791,52.3418745938995,100,9,0.935,83.5,16.3,83793,326.2,13903
northern europe,Denmark,DNK,5594000,28,27,137.976565849012,19.8129526369902,49.7257972740885,87.874,11,0.93,80.8,19.1,48836,104,11743
northern europe,Finland,FIN,5498211,10,19,18.1485472672831,21.7207875455222,49.2792415146168,85.382,12,0.925,81.7,19.3,41779,78.5,3180
northern europe,Norway,NOR,5265158,25,18,14.5482916341657,17.0492221563211,50.4753688675074,82.248,1,0.954,82.3,18.1,68059,70.6,6252
Central america and Caribbean,Costa Rica,CRI,4872543,45,8,97.9130630630631,9.54984767296984,49.9901489025877,79.34,68,0.794,80.1,15.4,14790,66.8,2960
africa,Republic of the Congo,COG,4852412,8,0,15.3568462664715,2.68171953903232,49.9343962269584,66.916,138,0.608,64.3,11.6,5804,154.9,206
Western europe,Ireland,IRL,4757976,54,22,70.6534475250399,13.8658017012923,49.5744905154799,63.17,3,0.942,82.1,18.8,55660,209.8,10338
australia and new Zealand,New Zealand,NZL,4474549,39,22,18.3851733697923,15.6524245271741,49.1622306025282,86.538,14,0.921,82.1,18.8,35108,54.2,3555
Central america and Caribbean,Panama,PAN,3705246,35,6,56.1860774818402,8.10473107966757,50.0946163489007,67.709,67,0.795,78.3,12.9,20455,87.6,1843
south america,Uruguay,URY,3351016,33,6,19.7080276539824,14.8145195308593,48.2784573057064,95.334,57,0.808,77.8,16.3,19435,40,3674
northern europe,Lithuania,LTU,2854235,15,16,44.7230757742448,19.7050331564608,46.2080413526722,67.679,34,0.869,75.7,16.5,29775,162,2523
eastern europe,Macedonia,MKD,2100025,13,8,82.5915146708961,13.6701813815648,50.0335340575922,57.963,82,0.759,75.7,13.5,12874,133.2,631
northern europe,Latvia,LVA,1965686,31,45,30.9934705693149,20.0436203206809,45.9898333437907,68.142,39,0.854,75.2,16,26301,118.4,1949
northern europe,Estonia,EST,1258545,13,24,30.4112491373361,19.6263568469749,47.1415731797934,68.88,30,0.882,78.6,16.1,30379,147,3245
north africa,Cabo Verde,CPV,553432,32,2,134.929776674938,4.60932715666821,50.1809608580193,65.732,126,0.651,72.8,11.9,6513,116.6,668
northern europe,Iceland,ISL,335878,21,0,3.51841396508728,14.7950925565689,50.1882914775832,93.813,6,0.938,82.9,19.2,47566,91.3,2225
